rcstour6p
…
       avg
1 20.09062

count(.data, …, wt = NULL, sort = FALSE, name = NULL)

Count number of rows in each 
group defined by the variables in …

Also tally().

starwars %>% 
  count(species,sort = TRUE)

# A tibble: 38 × 2
   species      n
   <chr>    <int>
 1 Human       35
 2 Droid        6
 3 <NA>         4
 4 Gungan       3
 5 Kaminoan     2
 6 Mirialan     2
 7 Twi'lek      2
 8 Wookiee      2
 9 Zabrak       2
10 Aleena       1
# … with 28 more rows
…
distinct(.data, …, .keep_all = FALSE)

Remove rows with duplicate values. distinct(mtcars, gear)

starwars %>% 
  distinct(homeworld)

# A tibble: 49 × 1
   homeworld 
   <chr>     
 1 Tatooine  
 2 Naboo     
 3 Alderaan  
 4 Stewjon   
 5 Eriadu    
 6 Kashyyyk  
 7 Corellia  
 8 Rodia     
 9 Nal Hutta 
10 Bestine IV
# … with 39 more rows
…
arrange(.data, …, .by_group = FALSE)

Order rows by values of a column or columns (low to high), use with desc() to order from high to low.

arrange(mtcars, mpg)

arrange(mtcars, desc(mpg))

starwars %>% 
  mutate(name, bmi = mass / ((height / 100)  ^ 2)) %>%
  select(name:mass, bmi) %>% 
  arrange(desc(bmi))

# A tibble: 87 × 4
   name                  height  mass   bmi
   <chr>                  <int> <dbl> <dbl>
 1 Jabba Desilijic Tiure    175  1358 443. 
 2 Dud Bolt                  94    45  50.9
 3 Yoda                      66    17  39.0
 4 Owen Lars                178   120  37.9
 5 IG-88                    200   140  35  
 6 R2-D2                     96    32  34.7
 7 Grievous                 216   159  34.1
 8 R5-D4                     97    32  34.0
 9 Jek Tono Porkins         180   110  34.0
10 Darth Vader              202   136  33.3
# … with 77 more rows
…
Extract column values as a vector, by name or index.

pull(mtcars, wt)

select(.data, …)

Extract columns as a table.

select(mtcars, mpg, wt)

starwars %>% 
  select(name, ends_with("color"))

# A tibble: 87 × 4
   name               hair_color    skin_color  eye_color
   <chr>              <chr>         <chr>       <chr>    
 1 Luke Skywalker     blond         fair        blue     
 2 C-3PO              <NA>          gold        yellow   
 3 R2-D2              <NA>          white, blue red      
 4 Darth Vader        none          white       yellow   
 5 Leia Organa        brown         light       brown    
 6 Owen Lars          brown, grey   light       blue     
 7 Beru Whitesun lars brown         light       blue     
 8 R5-D4              <NA>          white, red  red      
 9 Biggs Darklighter  black         light       brown    
10 Obi-Wan Kenobi     auburn, white fair        blue-gray
# … with 77 more rows
…
rename(.data, …)

Rename columns.

Use rename_with() to rename with a function.

rename(cars, distance = dist)

starwars %>% 
  mutate(name, bmi = 
           mass/((height/100)^ 2)) %>%
  select(name:mass, bmi) %>% 
  arrange(desc(bmi))

# A tibble: 87 × 4
   name                  height  mass   bmi
   <chr>                  <int> <dbl> <dbl>
 1 Jabba Desilijic Tiure    175  1358 443. 
 2 Dud Bolt                  94    45  50.9
 3 Yoda                      66    17  39.0
 4 Owen Lars                178   120  37.9
 5 IG-88                    200   140  35  
 6 R2-D2                     96    32  34.7
 7 Grievous                 216   159  34.1
 8 R5-D4                     97    32  34.0
 9 Jek Tono Porkins         180   110  34.0
10 Darth Vader              202   136  33.3
# … with 77 more rows
…
Dplyr: case_when

dplyr::case_when() - multi-case if_else()

starwars %>% 
  mutate(type = case_when(
    height > 200 | mass > 200 ~ "large",
    species == "Droid"~ "robot",
    TRUE  ~ "other"),
    .before=height
    )

# A tibble: 87 × 15
   name      type  height  mass hair_color skin_color eye_color birth_year sex  
   <chr>     <chr>  <int> <dbl> <chr>      <chr>      <chr>          <dbl> <chr>
 1 Luke Sky… other    172    77 blond      fair       blue            19   male 
 2 C-3PO     robot    167    75 <NA>       gold       yellow         112   none 
 3 R2-D2     robot     96    32 <NA>       white, bl… red             33   none 
 4 Darth Va… large    202   136 none       white      yellow          41.9 male 
 5 Leia Org… other    150    49 brown      light      brown           19   fema…
 6 Owen Lars other    178   120 brown, gr… light      blue            52   male 
 7 Beru Whi… other    165    75 brown      light      blue            47   fema…
 8 R5-D4     robot     97    32 <NA>       white, red red             NA   none 
 9 Biggs Da… other    183    84 black      light      brown           24   male 
10 Obi-Wan … other    182    77 auburn, w… fair       blue-gray       57   male 
# … with 77 more rows, and 6 more variables: gender <chr>, homeworld <chr>,
#   species <chr>, films <list>, vehicles <list>, starships <list>
…
